{
  "type": "minecraft:smithing",
  "base": {
    "item": "minecraft:netherite_axe"
  },
  "addition": {
    "item": "minecraft:nether_star"
  },
  "result": {
    "item": "evo_vanilla:deleted_mod_element"
  }
}