{
  "_fv": 24,
  "_type": "procedure",
  "definition": {
    "procedurexml": "<xml xmlns=\"https://developers.google.com/blockly/xml\"><block type=\"event_trigger\" deletable=\"false\" x=\"40\" y=\"40\"><field name=\"trigger\">no_ext_trigger</field><next><block type=\"controls_if\"><value name=\"IF0\"><block type=\"logic_binary_ops\"><field name=\"OP\">AND</field><value name=\"A\"><block type=\"compare_mcitems\"><value name=\"a\"><block type=\"mcitem_all\"><field name=\"value\">CUSTOM:Starite.body</field></block></value><value name=\"b\"><block type=\"entity_get_armor_slot_item\"><value name=\"slotid\"><block type=\"math_number\"><field name=\"NUM\">2</field></block></value><value name=\"entity\"><block type=\"entity_from_deps\"></block></value></block></value></block></value><value name=\"B\"><block type=\"logic_binary_ops\"><field name=\"OP\">AND</field><value name=\"A\"><block type=\"compare_mcitems\"><value name=\"a\"><block type=\"mcitem_all\"><field name=\"value\">CUSTOM:Starite.legs</field></block></value><value name=\"b\"><block type=\"entity_get_armor_slot_item\"><value name=\"slotid\"><block type=\"math_number\"><field name=\"NUM\">1</field></block></value><value name=\"entity\"><block type=\"entity_from_deps\"></block></value></block></value></block></value><value name=\"B\"><block type=\"compare_mcitems\"><value name=\"a\"><block type=\"mcitem_all\"><field name=\"value\">CUSTOM:Starite.boots</field></block></value><value name=\"b\"><block type=\"entity_get_armor_slot_item\"><value name=\"slotid\"><block type=\"math_number\"><field name=\"NUM\">0</field></block></value><value name=\"entity\"><block type=\"entity_from_deps\"></block></value></block></value></block></value></block></value></block></value><statement name=\"DO0\"><block type=\"entity_add_potion_advanced\"><field name=\"potion\">REGENERATION</field><value name=\"level\"><block type=\"math_number\"><field name=\"NUM\">0</field></block></value><value name=\"duration\"><block type=\"math_number\"><field name=\"NUM\">20</field></block></value><value name=\"ambient\"><block type=\"logic_boolean\"><field name=\"BOOL\">FALSE</field></block></value><value name=\"particles\"><block type=\"logic_boolean\"><field name=\"BOOL\">FALSE</field></block></value><value name=\"entity\"><block type=\"entity_from_deps\"></block></value></block></statement></block></next></block></xml>"
  }
}